{
  "EDITOR_STATE": {
    "allProjectFiles": {
      "b885fa9f-7bc8-4662-948b-3a692c87e37e": {
        "id": "b885fa9f-7bc8-4662-948b-3a692c87e37e",
        "parent": null,
        "name": "testmergeusebitbucket",
        "type": "DIRECTORY",
        "isDirectory": true,
        "children": [
          "413cbdb3-4fd0-4661-a2d1-cc79bae83979"
        ],
        "isRemovable": false,
        "filePath": "testmergeusebitbucket"
      },
      "413cbdb3-4fd0-4661-a2d1-cc79bae83979": {
        "id": "413cbdb3-4fd0-4661-a2d1-cc79bae83979",
        "parent": "b885fa9f-7bc8-4662-948b-3a692c87e37e",
        "name": "lambda.js",
        "type": "JS_LAMBDA",
        "isDirectory": false,
        "children": [],
        "isRemovable": true,
        "filePath": "testmergeusebitbucket/lambda.js",
        "code": "exports.handler = function(event, context, callback) {\n    \n    callback(null, {\"message\": \"Successfully executed\"});\n}",
        "config": {
          "runtime": "nodejs8.10",
          "handler": "handler",
          "timeout": 60,
          "memory": 128,
          "layers": []
        },
        "triggers": [
          {
            "resourceName": "apigusEast1sachithraAPInameindunilany",
            "config": {}
          }
        ]
      }
    },
    "rootNode": "b885fa9f-7bc8-4662-948b-3a692c87e37e",
    "openFiles": [
      "413cbdb3-4fd0-4661-a2d1-cc79bae83979"
    ],
    "currentFileId": "413cbdb3-4fd0-4661-a2d1-cc79bae83979",
    "resources": {},
    "customTemplate": {
      "dialect": null,
      "definitions": null
    },
    "envVariables": [
      {
        "lambdaId": "all",
        "varKey": "SIGMA_AWS_ACC_ID",
        "varValue": null,
        "shouldPersist": false,
        "displayOnly": false,
        "editable": false
      }
    ],
    "packageJSON": {
      "dependencies": {}
    }
  },
  "PROJECT_META": {
    "projectName": "testmergeusebitbucket",
    "projectDescription": "",
    "projectVersion": "1.0.0",
    "projectRegion": "us-east-1",
    "platform": "AWS",
    "platformRegions": {},
    "lastSave": 1568280818032
  },
  "VCS_STATE": {
    "provider": "BitBucket",
    "repo": {
      "name": "testmergeusebitbucket",
      "url": "https://bitbucket.org/Indunil1992/testmergeusebitbucket"
    }
  }
}